module gitlab.com/gitlab-org/step-runner

go 1.22

require (
	github.com/go-git/go-billy/v5 v5.5.0
	github.com/go-git/go-git/v5 v5.11.0
	github.com/joho/godotenv v1.5.1
	github.com/santhosh-tekuri/jsonschema/v5 v5.3.1
	github.com/spf13/cobra v1.8.0
	github.com/stretchr/testify v1.8.4
	golang.org/x/exp v0.0.0-20230905200255-921286631fa9
	golang.org/x/mod v0.12.0
	golang.org/x/net v0.23.0
	golang.org/x/sync v0.3.0
	google.golang.org/grpc v1.58.3
	google.golang.org/protobuf v1.33.0
	gopkg.in/yaml.v3 v3.0.1
)

require (
	dario.cat/mergo v1.0.0 // indirect
	github.com/Microsoft/go-winio v0.6.1 // indirect
	github.com/ProtonMail/go-crypto v0.0.0-20230828082145-3c4c8a2d2371 // indirect
	github.com/cloudflare/circl v1.3.7 // indirect
	github.com/cyphar/filepath-securejoin v0.2.4 // indirect
	github.com/davecgh/go-spew v1.1.1 // indirect
	github.com/emirpasic/gods v1.18.1 // indirect
	github.com/go-git/gcfg v1.5.1-0.20230307220236-3a3c6141e376 // indirect
	github.com/golang/groupcache v0.0.0-20210331224755-41bb18bfe9da // indirect
	github.com/golang/protobuf v1.5.3 // indirect
	github.com/inconshreveable/mousetrap v1.1.0 // indirect
	github.com/jbenet/go-context v0.0.0-20150711004518-d14ea06fba99 // indirect
	github.com/kevinburke/ssh_config v1.2.0 // indirect
	github.com/pjbgf/sha1cd v0.3.0 // indirect
	github.com/pmezard/go-difflib v1.0.0 // indirect
	github.com/sergi/go-diff v1.1.0 // indirect
	github.com/skeema/knownhosts v1.2.1 // indirect
	github.com/spf13/pflag v1.0.5 // indirect
	github.com/xanzy/ssh-agent v0.3.3 // indirect
	golang.org/x/crypto v0.21.0 // indirect
	golang.org/x/sys v0.18.0 // indirect
	golang.org/x/text v0.14.0 // indirect
	golang.org/x/tools v0.13.0 // indirect
	google.golang.org/genproto/googleapis/rpc v0.0.0-20230913181813-007df8e322eb // indirect
	gopkg.in/warnings.v0 v0.1.2 // indirect
)
